{
  "categories": [
    {
      "id": 1,
      "name": "Porções",
      "items": [
        {
          "name": "Porção inteira",
          "price": 110
        },
        {
          "name": "Meia porção",
          "price": 80
        },
        {
          "name": "Carreira solo",
          "price": 60
        },
        {
          "name": "Bol. Feij. tr. inteira (24 un.)",
          "price": 50
        },
        {
          "name": "Bol. Feij. tr. meia (12 un.)",
          "price": 30
        },
        {
          "name": "Bol. Cost. meia (12 un.)",
          "price": 30
        },
        {
          "name": "Bol. Cost. inteira (24 un.)",
          "price": 50
        },
        {
          "name": "Bol. congelado 24 bolinhos",
          "price": 30
        },
        {
          "name": "Combo inteiro",
          "price": 160
        },
        {
          "name": "Combo meio",
          "price": 110
        },
        {
          "name": "Combo individual",
          "price": 80
        },
        {
          "name": "Feijão meio",
          "price": 12
        },
        {
          "name": "Feijão inteiro",
          "price": 20
        },
        {
          "name": "Torresmo",
          "price": 45
        },
        {
          "name": "Arroz meia",
          "price": 12
        },
        {
          "name": "Arroz inteiro",
          "price": 20
        },
        {
          "name": "Batata inteira",
          "price": 30
        },
        {
          "name": "Batata meia",
          "price": 20
        }
      ]
    },
    {
      "id": 2,
      "name": "Bebidas",
      "items": [
        {
          "name": "Heineken 600ml",
          "price": 13
        },
        {
          "name": "Amstel 600ml",
          "price": 9
        },
        {
          "name": "Brahma 600ml",
          "price": 9
        },
        {
          "name": "Skol 600ml",
          "price": 9
        },
        {
          "name": "Brahma lata",
          "price": 5
        },
        {
          "name": "Skol Beats lata",
          "price": 12
        },
        {
          "name": "Água com gás",
          "price": 4
        },
        {
          "name": "Água sem gás",
          "price": 3
        },
        {
          "name": "Gelo e limão",
          "price": 2
        },
        {
          "name": "Coca-cola lata",
          "price": 5
        },
        {
          "name": "Coca-cola zero lata",
          "price": 5
        },
        {
          "name": "Schweppes tônica lata",
          "price": 5
        },
        {
          "name": "Schweppes citrus lata",
          "price": 5
        },
        {
          "name": "Fanta laranja lata",
          "price": 5
        },
        {
          "name": "Fanta uva lata",
          "price": 5
        },
        {
          "name": "Fanta Guaraná zero lata",
          "price": 5
        },
        {
          "name": "Kuat lata",
          "price": 5
        },
        {
          "name": "Sprite original lata",
          "price": 5
        },
        {
          "name": "Sprite lemon sem açúcar 510 ml",
          "price": 7
        },
        {
          "name": "Del Valle lata",
          "price": 6
        },
        {
          "name": "Refrigerante 1L",
          "price": 8
        },
        {
          "name": "Suco 1L",
          "price": 12
        },
        {
          "name": "Energético",
          "price": 12
        },
        {
          "name": "Long neck",
          "price": 10
        },
        {
          "name": "C.D.B",
          "price": 5
        },
        {
          "name": "Cachaça dose",
          "price": 5
        },
        {
          "name": "Caipirinha frutas cachaça",
          "price": 15
        },
        {
          "name": "Caipirinha frutas vodka",
          "price": 15
        },
        {
          "name": "Cozumel",
          "price": 20
        },
        {
          "name": "Tequila dose",
          "price": 15
        },
        {
          "name": "Gyn tônica com fruta e especiarias",
          "price": 30
        },
        {
          "name": "Campari dose",
          "price": 15
        },
        {
          "name": "Vodka Orloff dose",
          "price": 10
        },
        {
          "name": "Whiskey 8 anos dose",
          "price": 15
        },
        {
          "name": "Whiskey 12 anos dose",
          "price": 20
        },
        {
          "name": "Montila ouro dose",
          "price": 12
        }
      ]
    },
    {
      "id": 3,
      "name": "Outro",
      "items": [
        {
          "name": "Couvert artístico",
          "price": 10
        },
        {
          "name": "Creme de alho",
          "price": 7
        },
        {
          "name": "Embalagem",
          "price": 3
        }
      ]
    }
  ],
  "tabs": [
    {
      "id": 1,
      "client": {
        "id": 1,
        "name": "Carlos"
      },
      "selection": [
        {
          "item": {
            "name": "Batata meia",
            "price": 20
          },
          "quantity": 1
        },
        {
          "item": {
            "name": "Gyn tônica com fruta e especiarias",
            "price": 30
          },
          "quantity": 2
        },
        {
          "item": {
            "name": "Montila ouro dose",
            "price": 12
          },
          "quantity": 2
        },
        {
          "item": {
            "name": "Tequila dose",
            "price": 15
          },
          "quantity": 4
        },
        {
          "item": {
            "name": "Whiskey 12 anos dose",
            "price": 20
          },
          "quantity": 4
        }
      ]
    },
    {
      "id": 2,
      "client": {
        "id": 2,
        "name": "Joao"
      },
      "selection": [
        {
          "item": {
            "name": "Bol. Cost. inteira (24 un.)",
            "price": 50
          },
          "quantity": 2
        },
        {
          "item": {
            "name": "Caipirinha frutas vodka",
            "price": 15
          },
          "quantity": 1
        },
        {
          "item": {
            "name": "Cozumel",
            "price": 20
          },
          "quantity": 4
        },
        {
          "item": {
            "name": "Creme de alho",
            "price": 7
          },
          "quantity": 3
        },
        {
          "item": {
            "name": "Embalagem",
            "price": 3
          },
          "quantity": 6
        },
        {
          "item": {
            "name": "Feijão inteiro",
            "price": 20
          },
          "quantity": 2
        },
        {
          "item": {
            "name": "Feijão meio",
            "price": 12
          },
          "quantity": 2
        },
        {
          "item": {
            "name": "Heineken 600ml",
            "price": 13
          },
          "quantity": 2
        },
        {
          "item": {
            "name": "Montila ouro dose",
            "price": 12
          },
          "quantity": 1
        },
        {
          "item": {
            "name": "Whiskey 12 anos dose",
            "price": 20
          },
          "quantity": 3
        }
      ]
    },
    {
      "client": {
        "id": 2345,
        "name": "Joana"
      },
      "selection": [],
      "id": 8
    }
  ]
}
